<svg version="1.1" id="el_5T5pGM6xx" xmlns="http://www.w3.org/2000/svg" xmlns:xlink="http://www.w3.org/1999/xlink" x="0px" y="0px" viewBox="0 0 350 300" enable-background="new 0 0 350 300" xml:space="preserve"><style>@-webkit-keyframes kf_el_0BKtmMqbMf_an_ORk2RibWP{0%{-webkit-transform: translate(175.00034713745117px, 72.46514701843262px) rotate(0deg) translate(-175.00034713745117px, -72.46514701843262px);transform: translate(175.00034713745117px, 72.46514701843262px) rotate(0deg) translate(-175.00034713745117px, -72.46514701843262px);}6.67%{-webkit-transform: translate(175.00034713745117px, 72.46514701843262px) rotate(4deg) translate(-175.00034713745117px, -72.46514701843262px);transform: translate(175.00034713745117px, 72.46514701843262px) rotate(4deg) translate(-175.00034713745117px, -72.46514701843262px);}13.33%{-webkit-transform: translate(175.00034713745117px, 72.46514701843262px) rotate(-4deg) translate(-175.00034713745117px, -72.46514701843262px);transform: translate(175.00034713745117px, 72.46514701843262px) rotate(-4deg) translate(-175.00034713745117px, -72.46514701843262px);}20%{-webkit-transform: translate(175.00034713745117px, 72.46514701843262px) rotate(4deg) translate(-175.00034713745117px, -72.46514701843262px);transform: translate(175.00034713745117px, 72.46514701843262px) rotate(4deg) translate(-175.00034713745117px, -72.46514701843262px);}26.67%{-webkit-transform: translate(175.00034713745117px, 72.46514701843262px) rotate(-4deg) translate(-175.00034713745117px, -72.46514701843262px);transform: translate(175.00034713745117px, 72.46514701843262px) rotate(-4deg) translate(-175.00034713745117px, -72.46514701843262px);}33.33%{-webkit-transform: translate(175.00034713745117px, 72.46514701843262px) rotate(4deg) translate(-175.00034713745117px, -72.46514701843262px);transform: translate(175.00034713745117px, 72.46514701843262px) rotate(4deg) translate(-175.00034713745117px, -72.46514701843262px);}40%{-webkit-transform: translate(175.00034713745117px, 72.46514701843262px) rotate(-4deg) translate(-175.00034713745117px, -72.46514701843262px);transform: translate(175.00034713745117px, 72.46514701843262px) rotate(-4deg) translate(-175.00034713745117px, -72.46514701843262px);}46.67%{-webkit-transform: translate(175.00034713745117px, 72.46514701843262px) rotate(4deg) translate(-175.00034713745117px, -72.46514701843262px);transform: translate(175.00034713745117px, 72.46514701843262px) rotate(4deg) translate(-175.00034713745117px, -72.46514701843262px);}53.33%{-webkit-transform: translate(175.00034713745117px, 72.46514701843262px) rotate(-4deg) translate(-175.00034713745117px, -72.46514701843262px);transform: translate(175.00034713745117px, 72.46514701843262px) rotate(-4deg) translate(-175.00034713745117px, -72.46514701843262px);}60%{-webkit-transform: translate(175.00034713745117px, 72.46514701843262px) rotate(4deg) translate(-175.00034713745117px, -72.46514701843262px);transform: translate(175.00034713745117px, 72.46514701843262px) rotate(4deg) translate(-175.00034713745117px, -72.46514701843262px);}66.67%{-webkit-transform: translate(175.00034713745117px, 72.46514701843262px) rotate(-4deg) translate(-175.00034713745117px, -72.46514701843262px);transform: translate(175.00034713745117px, 72.46514701843262px) rotate(-4deg) translate(-175.00034713745117px, -72.46514701843262px);}73.33%{-webkit-transform: translate(175.00034713745117px, 72.46514701843262px) rotate(4deg) translate(-175.00034713745117px, -72.46514701843262px);transform: translate(175.00034713745117px, 72.46514701843262px) rotate(4deg) translate(-175.00034713745117px, -72.46514701843262px);}80%{-webkit-transform: translate(175.00034713745117px, 72.46514701843262px) rotate(-4deg) translate(-175.00034713745117px, -72.46514701843262px);transform: translate(175.00034713745117px, 72.46514701843262px) rotate(-4deg) translate(-175.00034713745117px, -72.46514701843262px);}86.67%{-webkit-transform: translate(175.00034713745117px, 72.46514701843262px) rotate(4deg) translate(-175.00034713745117px, -72.46514701843262px);transform: translate(175.00034713745117px, 72.46514701843262px) rotate(4deg) translate(-175.00034713745117px, -72.46514701843262px);}93.33%{-webkit-transform: translate(175.00034713745117px, 72.46514701843262px) rotate(-4deg) translate(-175.00034713745117px, -72.46514701843262px);transform: translate(175.00034713745117px, 72.46514701843262px) rotate(-4deg) translate(-175.00034713745117px, -72.46514701843262px);}100%{-webkit-transform: translate(175.00034713745117px, 72.46514701843262px) rotate(-4deg) translate(-175.00034713745117px, -72.46514701843262px);transform: translate(175.00034713745117px, 72.46514701843262px) rotate(-4deg) translate(-175.00034713745117px, -72.46514701843262px);}}@keyframes kf_el_0BKtmMqbMf_an_ORk2RibWP{0%{-webkit-transform: translate(175.00034713745117px, 72.46514701843262px) rotate(0deg) translate(-175.00034713745117px, -72.46514701843262px);transform: translate(175.00034713745117px, 72.46514701843262px) rotate(0deg) translate(-175.00034713745117px, -72.46514701843262px);}6.67%{-webkit-transform: translate(175.00034713745117px, 72.46514701843262px) rotate(4deg) translate(-175.00034713745117px, -72.46514701843262px);transform: translate(175.00034713745117px, 72.46514701843262px) rotate(4deg) translate(-175.00034713745117px, -72.46514701843262px);}13.33%{-webkit-transform: translate(175.00034713745117px, 72.46514701843262px) rotate(-4deg) translate(-175.00034713745117px, -72.46514701843262px);transform: translate(175.00034713745117px, 72.46514701843262px) rotate(-4deg) translate(-175.00034713745117px, -72.46514701843262px);}20%{-webkit-transform: translate(175.00034713745117px, 72.46514701843262px) rotate(4deg) translate(-175.00034713745117px, -72.46514701843262px);transform: translate(175.00034713745117px, 72.46514701843262px) rotate(4deg) translate(-175.00034713745117px, -72.46514701843262px);}26.67%{-webkit-transform: translate(175.00034713745117px, 72.46514701843262px) rotate(-4deg) translate(-175.00034713745117px, -72.46514701843262px);transform: translate(175.00034713745117px, 72.46514701843262px) rotate(-4deg) translate(-175.00034713745117px, -72.46514701843262px);}33.33%{-webkit-transform: translate(175.00034713745117px, 72.46514701843262px) rotate(4deg) translate(-175.00034713745117px, -72.46514701843262px);transform: translate(175.00034713745117px, 72.46514701843262px) rotate(4deg) translate(-175.00034713745117px, -72.46514701843262px);}40%{-webkit-transform: translate(175.00034713745117px, 72.46514701843262px) rotate(-4deg) translate(-175.00034713745117px, -72.46514701843262px);transform: translate(175.00034713745117px, 72.46514701843262px) rotate(-4deg) translate(-175.00034713745117px, -72.46514701843262px);}46.67%{-webkit-transform: translate(175.00034713745117px, 72.46514701843262px) rotate(4deg) translate(-175.00034713745117px, -72.46514701843262px);transform: translate(175.00034713745117px, 72.46514701843262px) rotate(4deg) translate(-175.00034713745117px, -72.46514701843262px);}53.33%{-webkit-transform: translate(175.00034713745117px, 72.46514701843262px) rotate(-4deg) translate(-175.00034713745117px, -72.46514701843262px);transform: translate(175.00034713745117px, 72.46514701843262px) rotate(-4deg) translate(-175.00034713745117px, -72.46514701843262px);}60%{-webkit-transform: translate(175.00034713745117px, 72.46514701843262px) rotate(4deg) translate(-175.00034713745117px, -72.46514701843262px);transform: translate(175.00034713745117px, 72.46514701843262px) rotate(4deg) translate(-175.00034713745117px, -72.46514701843262px);}66.67%{-webkit-transform: translate(175.00034713745117px, 72.46514701843262px) rotate(-4deg) translate(-175.00034713745117px, -72.46514701843262px);transform: translate(175.00034713745117px, 72.46514701843262px) rotate(-4deg) translate(-175.00034713745117px, -72.46514701843262px);}73.33%{-webkit-transform: translate(175.00034713745117px, 72.46514701843262px) rotate(4deg) translate(-175.00034713745117px, -72.46514701843262px);transform: translate(175.00034713745117px, 72.46514701843262px) rotate(4deg) translate(-175.00034713745117px, -72.46514701843262px);}80%{-webkit-transform: translate(175.00034713745117px, 72.46514701843262px) rotate(-4deg) translate(-175.00034713745117px, -72.46514701843262px);transform: translate(175.00034713745117px, 72.46514701843262px) rotate(-4deg) translate(-175.00034713745117px, -72.46514701843262px);}86.67%{-webkit-transform: translate(175.00034713745117px, 72.46514701843262px) rotate(4deg) translate(-175.00034713745117px, -72.46514701843262px);transform: translate(175.00034713745117px, 72.46514701843262px) rotate(4deg) translate(-175.00034713745117px, -72.46514701843262px);}93.33%{-webkit-transform: translate(175.00034713745117px, 72.46514701843262px) rotate(-4deg) translate(-175.00034713745117px, -72.46514701843262px);transform: translate(175.00034713745117px, 72.46514701843262px) rotate(-4deg) translate(-175.00034713745117px, -72.46514701843262px);}100%{-webkit-transform: translate(175.00034713745117px, 72.46514701843262px) rotate(-4deg) translate(-175.00034713745117px, -72.46514701843262px);transform: translate(175.00034713745117px, 72.46514701843262px) rotate(-4deg) translate(-175.00034713745117px, -72.46514701843262px);}}#el_5T5pGM6xx *{-webkit-animation-duration: 3s;animation-duration: 3s;-webkit-animation-iteration-count: infinite;animation-iteration-count: infinite;-webkit-animation-timing-function: cubic-bezier(0, 0, 1, 1);animation-timing-function: cubic-bezier(0, 0, 1, 1);}#el_rwPxLzs8T3{fill: #FFFFFF;}#el_0BKtmMqbMf{fill: #FFFFFF;}#el_SYFmg_lWFi{fill: #FFFFFF;}#el_0BKtmMqbMf_an_ORk2RibWP{-webkit-animation-fill-mode: backwards;animation-fill-mode: backwards;-webkit-transform: translate(175.00034713745117px, 72.46514701843262px) rotate(0deg) translate(-175.00034713745117px, -72.46514701843262px);transform: translate(175.00034713745117px, 72.46514701843262px) rotate(0deg) translate(-175.00034713745117px, -72.46514701843262px);-webkit-animation-name: kf_el_0BKtmMqbMf_an_ORk2RibWP;animation-name: kf_el_0BKtmMqbMf_an_ORk2RibWP;-webkit-animation-timing-function: cubic-bezier(0.42, 0, 0.58, 1);animation-timing-function: cubic-bezier(0.42, 0, 0.58, 1);}</style>
<g id="el__jeaxhE9b9">
	<path fill-rule="evenodd" clip-rule="evenodd" d="M120.866,126.636c0-6.957-0.001-13.432,0.001-19.91&#10;&#9;&#9;c0.001-8.207,3.73-13.128,11.691-15.336c4.554-1.261,9.104-1.172,13.601,0.315c7.473,2.472,10.739,7.012,10.751,14.874&#10;&#9;&#9;c0.008,6.388,0.03,12.777,0.055,19.168c0.001,0.172,0.112,0.341,0.237,0.701c11.81,0,23.676,0,35.861,0c0-5.283,0-10.424,0-15.567&#10;&#9;&#9;c0-0.846-0.012-1.692-0.011-2.539c0.034-12.401,8.577-19.723,20.968-17.548c3.408,0.596,6.835,2.064,9.823,3.85&#10;&#9;&#9;c3.668,2.192,5.347,5.859,5.293,10.28c-0.086,7.122-0.023,14.24-0.023,21.692c3.137,0,6.019-0.035,8.899,0.008&#10;&#9;&#9;c5.811,0.084,10.763,2.28,14.132,6.982c16.655,23.274,31.841,47.397,42.584,74.084c5.142,12.772,7.216,25.967,6.638,39.694&#10;&#9;&#9;c-0.309,7.318-0.063,14.66-0.056,21.99C301.316,281.42,293.824,289,281.854,289c-71.24-0.003-142.48-0.011-213.721-0.022&#10;&#9;&#9;c-12.045-0.002-19.44-7.477-19.433-19.561c0.008-11.091,0.038-22.181-0.035-33.271c-0.051-7.577,2.073-14.678,4.714-21.62&#10;&#9;&#9;c8.089-21.264,19.558-40.784,31.408-60.087c3.981-6.486,8.156-12.85,12.287-19.241c3.711-5.74,9.029-8.574,15.864-8.563&#10;&#9;&#9;C115.458,126.643,117.978,126.636,120.866,126.636z M229.177,216.945c0.074-29.955-24.115-54.122-54.329-54.277&#10;&#9;&#9;c-29.519-0.151-53.892,24.24-53.991,54.036c-0.1,29.929,24.151,54.167,54.322,54.293&#10;&#9;&#9;C204.695,271.117,229.099,246.687,229.177,216.945z" id="el_rwPxLzs8T3"/>
	<g id="el_0BKtmMqbMf_an_ORk2RibWP" data-animator-group="true" data-animator-type="1"><path fill-rule="evenodd" clip-rule="evenodd" d="M283.763,126.568c-6.108,0-12.217,0.051-18.322-0.009&#10;&#9;&#9;c-9.349-0.098-17.498-7.794-17.602-17.117c-0.242-22.195-12.081-36.629-30.821-46.348c-10.345-5.364-21.639-7.303-33.197-7.81&#10;&#9;&#9;c-14.714-0.649-29.316-0.226-43.423,4.705c-15.34,5.36-26.919,15.036-33.996,29.813c-2.56,5.346-3.541,11.054-3.596,16.947&#10;&#9;&#9;c-0.118,12.569-7.534,19.858-20.137,19.836c-10.995-0.019-21.988,0.048-32.979-0.03c-11.521-0.083-19.019-7.678-19.048-19.153&#10;&#9;&#9;c-0.015-6.014,0.026-12.027-0.005-18.041c-0.046-8.995,3.052-16.775,9.276-23.195c21.517-22.192,47.167-36.892,77.708-42.762&#10;&#9;&#9;c27.596-5.302,55.399-6,83.343-4.123c16.64,1.118,33.022,3.691,48.963,8.696c23.967,7.524,43.996,21.247,61.16,39.34&#10;&#9;&#9;c5.543,5.841,8.066,13.043,8.196,21.043c0.108,6.762,0.104,13.528,0.013,20.292c-0.147,10.502-7.606,17.868-18.056,17.924&#10;&#9;&#9;c-5.826,0.031-11.653,0.005-17.477,0.005C283.763,126.58,283.763,126.574,283.763,126.568z" id="el_0BKtmMqbMf"/></g>
	<path fill-rule="evenodd" clip-rule="evenodd" d="M175.26,180.777c20.035,0.181,35.999,16.489,35.814,36.584&#10;&#9;&#9;c-0.182,19.63-16.661,35.746-36.322,35.526c-20.101-0.224-35.972-16.454-35.793-36.603&#10;&#9;&#9;C139.133,196.623,155.517,180.595,175.26,180.777z" id="el_SYFmg_lWFi"/>
</g>
</svg>